{
    "page": 2,
    "per_page": 6,
    "total": 12,
    "total_pages": 2,
    "data": 
    [
        {
            "id": 7,
            "email": "michael.lawson@reqres.in",
            "first_name": "Sai",
            "last_name": "Goutham"
           
        },
        {
            "id": 8,
            "email": "lindsay.ferguson@reqres.in",
            "first_name": "Ram",
            "last_name": "Krishna"  
            
        }
    ]
 }